// Jest Snapshot v1, https://goo.gl/fbAQLP

exports[`MergeRequest component when there is a merge request matches the snapshot 1`] = `
<li
  class="merge-request"
>
  <div
    class="issuable-info-container"
  >
    <div
      class="issuable-main-info"
    >
      <div
        class="title"
      >
        <a
          href="/h5bp/html5-boilerplate/-/merge_requests/1"
        >
          
          Merge request 1
        
        </a>
      </div>
       
      <span
        class="gl-text-gray-700"
      >
        
        !1
      
      </span>
       
      <span
        class="issuable-authored gl-text-gray-700 d-inline-flex align-items-center"
      >
        
        - created by:
        
        <gl-avatar-link-stub
          class="d-inline-flex align-items-center ml-2 author-link js-user-link"
          data-name="User 1"
          data-user-id="1"
          href="http://localhost:3000/user-1"
          title="User 1"
        >
          <gl-avatar-stub
            alt="avatar"
            class="mr-1"
            entityid="1"
            entityname="User 1"
            shape="circle"
            size="16"
            src="https://1"
          />
           
          <span>
            User 1
          </span>
        </gl-avatar-link-stub>
      </span>
    </div>
     
    <div
      class="issuable-meta"
    >
      <ul
        class="controls"
      >
        <!---->
         
        <approvers-stub
          approvers=""
        />
      </ul>
       
      <span
        class="gl-text-gray-700"
      >
        <time>
          merged 2 days ago
        </time>
      </span>
    </div>
  </div>
</li>
`;
